%YAML 1.1
%TAG !u! tag:unity3d.com,2011:
--- !u!29 &1
SceneSettings:
  m_ObjectHideFlags: 0
  m_PVSData: 
  m_PVSObjectsArray: []
  m_PVSPortalsArray: []
  m_OcclusionBakeSettings:
    smallestOccluder: 5
    smallestHole: 0.25
    backfaceThreshold: 100
--- !u!104 &2
RenderSettings:
  m_ObjectHideFlags: 0
  serializedVersion: 7
  m_Fog: 0
  m_FogColor: {r: 0.5, g: 0.5, b: 0.5, a: 1}
  m_FogMode: 3
  m_FogDensity: 0.01
  m_LinearFogStart: 0
  m_LinearFogEnd: 300
  m_AmbientSkyColor: {r: 0.212, g: 0.227, b: 0.259, a: 1}
  m_AmbientEquatorColor: {r: 0.114, g: 0.125, b: 0.133, a: 1}
  m_AmbientGroundColor: {r: 0.047, g: 0.043, b: 0.035, a: 1}
  m_AmbientIntensity: 1
  m_AmbientMode: 0
  m_SkyboxMaterial: {fileID: 10304, guid: 0000000000000000f000000000000000, type: 0}
  m_HaloStrength: 0.5
  m_FlareStrength: 1
  m_FlareFadeSpeed: 3
  m_HaloTexture: {fileID: 0}
  m_SpotCookie: {fileID: 10001, guid: 0000000000000000e000000000000000, type: 0}
  m_DefaultReflectionMode: 0
  m_DefaultReflectionResolution: 128
  m_ReflectionBounces: 1
  m_ReflectionIntensity: 1
  m_CustomReflection: {fileID: 0}
  m_Sun: {fileID: 0}
  m_IndirectSpecularColor: {r: 0, g: 0, b: 0, a: 1}
--- !u!157 &4
LightmapSettings:
  m_ObjectHideFlags: 0
  serializedVersion: 7
  m_GIWorkflowMode: 0
  m_GISettings:
    serializedVersion: 2
    m_BounceScale: 1
    m_IndirectOutputScale: 1
    m_AlbedoBoost: 1
    m_TemporalCoherenceThreshold: 1
    m_EnvironmentLightingMode: 0
    m_EnableBakedLightmaps: 1
    m_EnableRealtimeLightmaps: 1
  m_LightmapEditorSettings:
    serializedVersion: 4
    m_Resolution: 2
    m_BakeResolution: 40
    m_TextureWidth: 1024
    m_TextureHeight: 1024
    m_AO: 0
    m_AOMaxDistance: 1
    m_CompAOExponent: 0
    m_CompAOExponentDirect: 0
    m_Padding: 2
    m_LightmapParameters: {fileID: 0}
    m_LightmapsBakeMode: 1
    m_TextureCompression: 1
    m_DirectLightInLightProbes: 1
    m_FinalGather: 0
    m_FinalGatherFiltering: 1
    m_FinalGatherRayCount: 1024
    m_ReflectionCompression: 2
  m_LightingDataAsset: {fileID: 0}
  m_RuntimeCPUUsage: 25
--- !u!196 &5
NavMeshSettings:
  serializedVersion: 2
  m_ObjectHideFlags: 0
  m_BuildSettings:
    serializedVersion: 2
    agentRadius: 0.5
    agentHeight: 2
    agentSlope: 45
    agentClimb: 0.4
    ledgeDropHeight: 0
    maxJumpAcrossDistance: 0
    accuratePlacement: 0
    minRegionArea: 2
    cellSize: 0.16666667
    manualCellSize: 0
  m_NavMeshData: {fileID: 0}
--- !u!1 &43895179
GameObject:
  m_ObjectHideFlags: 0
  m_PrefabParentObject: {fileID: 155280, guid: 41d1cac196452694fb10f2476db79e6e, type: 2}
  m_PrefabInternal: {fileID: 481896815}
  serializedVersion: 4
  m_Component:
  - 4: {fileID: 43895180}
  m_Layer: 0
  m_Name: key_silver
  m_TagString: Untagged
  m_Icon: {fileID: 0}
  m_NavMeshLayer: 0
  m_StaticEditorFlags: 0
  m_IsActive: 1
--- !u!4 &43895180
Transform:
  m_ObjectHideFlags: 0
  m_PrefabParentObject: {fileID: 469694, guid: 41d1cac196452694fb10f2476db79e6e, type: 2}
  m_PrefabInternal: {fileID: 481896815}
  m_GameObject: {fileID: 43895179}
  m_LocalRotation: {x: 0, y: -0.56557554, z: 0, w: 0.82469654}
  m_LocalPosition: {x: 14.930393, y: 0.022768548, z: 7.8884006}
  m_LocalScale: {x: 1.8018788, y: 1.8018793, z: 1.8018793}
  m_LocalEulerAnglesHint: {x: 0, y: 0, z: 0}
  m_Children:
  - {fileID: 1783885567}
  m_Father: {fileID: 0}
  m_RootOrder: 0
--- !u!1001 &279981035
Prefab:
  m_ObjectHideFlags: 0
  serializedVersion: 2
  m_Modification:
    m_TransformParent: {fileID: 0}
    m_Modifications:
    - target: {fileID: 462124, guid: cc5de5e674870ca479a40105f80555ad, type: 2}
      propertyPath: m_LocalPosition.x
      value: 5.20398331
      objectReference: {fileID: 0}
    - target: {fileID: 462124, guid: cc5de5e674870ca479a40105f80555ad, type: 2}
      propertyPath: m_LocalPosition.y
      value: .0227685478
      objectReference: {fileID: 0}
    - target: {fileID: 462124, guid: cc5de5e674870ca479a40105f80555ad, type: 2}
      propertyPath: m_LocalPosition.z
      value: 16.7393894
      objectReference: {fileID: 0}
    - target: {fileID: 462124, guid: cc5de5e674870ca479a40105f80555ad, type: 2}
      propertyPath: m_LocalRotation.x
      value: 0
      objectReference: {fileID: 0}
    - target: {fileID: 462124, guid: cc5de5e674870ca479a40105f80555ad, type: 2}
      propertyPath: m_LocalRotation.y
      value: -.56557554
      objectReference: {fileID: 0}
    - target: {fileID: 462124, guid: cc5de5e674870ca479a40105f80555ad, type: 2}
      propertyPath: m_LocalRotation.z
      value: 0
      objectReference: {fileID: 0}
    - target: {fileID: 462124, guid: cc5de5e674870ca479a40105f80555ad, type: 2}
      propertyPath: m_LocalRotation.w
      value: .824696541
      objectReference: {fileID: 0}
    - target: {fileID: 462124, guid: cc5de5e674870ca479a40105f80555ad, type: 2}
      propertyPath: m_RootOrder
      value: 1
      objectReference: {fileID: 0}
    m_RemovedComponents: []
  m_ParentPrefab: {fileID: 100100000, guid: cc5de5e674870ca479a40105f80555ad, type: 2}
  m_RootGameObject: {fileID: 1520442338}
  m_IsPrefabParent: 0
--- !u!1001 &481896815
Prefab:
  m_ObjectHideFlags: 0
  serializedVersion: 2
  m_Modification:
    m_TransformParent: {fileID: 0}
    m_Modifications:
    - target: {fileID: 469694, guid: 41d1cac196452694fb10f2476db79e6e, type: 2}
      propertyPath: m_LocalPosition.x
      value: 14.9303932
      objectReference: {fileID: 0}
    - target: {fileID: 469694, guid: 41d1cac196452694fb10f2476db79e6e, type: 2}
      propertyPath: m_LocalPosition.y
      value: .0227685478
      objectReference: {fileID: 0}
    - target: {fileID: 469694, guid: 41d1cac196452694fb10f2476db79e6e, type: 2}
      propertyPath: m_LocalPosition.z
      value: 7.88840055
      objectReference: {fileID: 0}
    - target: {fileID: 469694, guid: 41d1cac196452694fb10f2476db79e6e, type: 2}
      propertyPath: m_LocalRotation.x
      value: 0
      objectReference: {fileID: 0}
    - target: {fileID: 469694, guid: 41d1cac196452694fb10f2476db79e6e, type: 2}
      propertyPath: m_LocalRotation.y
      value: -.56557554
      objectReference: {fileID: 0}
    - target: {fileID: 469694, guid: 41d1cac196452694fb10f2476db79e6e, type: 2}
      propertyPath: m_LocalRotation.z
      value: 0
      objectReference: {fileID: 0}
    - target: {fileID: 469694, guid: 41d1cac196452694fb10f2476db79e6e, type: 2}
      propertyPath: m_LocalRotation.w
      value: .824696541
      objectReference: {fileID: 0}
    - target: {fileID: 469694, guid: 41d1cac196452694fb10f2476db79e6e, type: 2}
      propertyPath: m_RootOrder
      value: 0
      objectReference: {fileID: 0}
    m_RemovedComponents: []
  m_ParentPrefab: {fileID: 100100000, guid: 41d1cac196452694fb10f2476db79e6e, type: 2}
  m_RootGameObject: {fileID: 43895179}
  m_IsPrefabParent: 0
--- !u!1 &582735977
GameObject:
  m_ObjectHideFlags: 0
  m_PrefabParentObject: {fileID: 0}
  m_PrefabInternal: {fileID: 0}
  serializedVersion: 4
  m_Component:
  - 4: {fileID: 582735979}
  - 108: {fileID: 582735978}
  m_Layer: 0
  m_Name: Directional Light
  m_TagString: Untagged
  m_Icon: {fileID: 0}
  m_NavMeshLayer: 0
  m_StaticEditorFlags: 0
  m_IsActive: 1
--- !u!108 &582735978
Light:
  m_ObjectHideFlags: 0
  m_PrefabParentObject: {fileID: 0}
  m_PrefabInternal: {fileID: 0}
  m_GameObject: {fileID: 582735977}
  m_Enabled: 1
  serializedVersion: 7
  m_Type: 1
  m_Color: {r: 1, g: 0.95686275, b: 0.8392157, a: 1}
  m_Intensity: 1
  m_Range: 10
  m_SpotAngle: 30
  m_CookieSize: 10
  m_Shadows:
    m_Type: 2
    m_Resolution: -1
    m_CustomResolution: -1
    m_Strength: 1
    m_Bias: 0.05
    m_NormalBias: 0.4
    m_NearPlane: 0.2
  m_Cookie: {fileID: 0}
  m_DrawHalo: 0
  m_Flare: {fileID: 0}
  m_RenderMode: 0
  m_CullingMask:
    serializedVersion: 2
    m_Bits: 4294967295
  m_Lightmapping: 4
  m_AreaSize: {x: 1, y: 1}
  m_BounceIntensity: 1
  m_ShadowRadius: 0
  m_ShadowAngle: 0
--- !u!4 &582735979
Transform:
  m_ObjectHideFlags: 0
  m_PrefabParentObject: {fileID: 0}
  m_PrefabInternal: {fileID: 0}
  m_GameObject: {fileID: 582735977}
  m_LocalRotation: {x: 0.77729154, y: 0.33504158, z: -0.09034918, w: 0.52478766}
  m_LocalPosition: {x: 0, y: 3, z: 0}
  m_LocalScale: {x: 1, y: 1, z: 1}
  m_LocalEulerAnglesHint: {x: 0, y: 0, z: 0}
  m_Children: []
  m_Father: {fileID: 0}
  m_RootOrder: 3
--- !u!1 &781753949
GameObject:
  m_ObjectHideFlags: 0
  m_PrefabParentObject: {fileID: 105912, guid: cc5de5e674870ca479a40105f80555ad, type: 2}
  m_PrefabInternal: {fileID: 279981035}
  serializedVersion: 4
  m_Component:
  - 4: {fileID: 781753950}
  - 33: {fileID: 781753952}
  - 23: {fileID: 781753951}
  m_Layer: 0
  m_Name: pPlane3
  m_TagString: Untagged
  m_Icon: {fileID: 0}
  m_NavMeshLayer: 0
  m_StaticEditorFlags: 0
  m_IsActive: 1
--- !u!4 &781753950
Transform:
  m_ObjectHideFlags: 0
  m_PrefabParentObject: {fileID: 431008, guid: cc5de5e674870ca479a40105f80555ad, type: 2}
  m_PrefabInternal: {fileID: 279981035}
  m_GameObject: {fileID: 781753949}
  m_LocalRotation: {x: 0, y: 0, z: 0, w: 1}
  m_LocalPosition: {x: 0, y: 0, z: 0}
  m_LocalScale: {x: 1, y: 1, z: 1}
  m_LocalEulerAnglesHint: {x: 0, y: 0, z: 0}
  m_Children: []
  m_Father: {fileID: 1520442339}
  m_RootOrder: 0
--- !u!23 &781753951
MeshRenderer:
  m_ObjectHideFlags: 0
  m_PrefabParentObject: {fileID: 2314182, guid: cc5de5e674870ca479a40105f80555ad,
    type: 2}
  m_PrefabInternal: {fileID: 279981035}
  m_GameObject: {fileID: 781753949}
  m_Enabled: 1
  m_CastShadows: 1
  m_ReceiveShadows: 1
  m_MotionVectors: 1
  m_LightProbeUsage: 1
  m_ReflectionProbeUsage: 1
  m_Materials:
  - {fileID: 2100000, guid: ed8f9be796d22ce41a61877771323fc8, type: 2}
  m_SubsetIndices: 
  m_StaticBatchRoot: {fileID: 0}
  m_ProbeAnchor: {fileID: 0}
  m_LightProbeVolumeOverride: {fileID: 0}
  m_ScaleInLightmap: 1
  m_PreserveUVs: 0
  m_IgnoreNormalsForChartDetection: 0
  m_ImportantGI: 0
  m_SelectedWireframeHidden: 0
  m_MinimumChartSize: 4
  m_AutoUVMaxDistance: 0.5
  m_AutoUVMaxAngle: 89
  m_LightmapParameters: {fileID: 0}
  m_SortingLayerID: 0
  m_SortingOrder: 0
--- !u!33 &781753952
MeshFilter:
  m_ObjectHideFlags: 0
  m_PrefabParentObject: {fileID: 3331670, guid: cc5de5e674870ca479a40105f80555ad,
    type: 2}
  m_PrefabInternal: {fileID: 279981035}
  m_GameObject: {fileID: 781753949}
  m_Mesh: {fileID: 4300000, guid: 5abfc2d3b5ea5d64ca95d10d1a34b677, type: 3}
--- !u!1 &1520442338
GameObject:
  m_ObjectHideFlags: 0
  m_PrefabParentObject: {fileID: 170560, guid: cc5de5e674870ca479a40105f80555ad, type: 2}
  m_PrefabInternal: {fileID: 279981035}
  serializedVersion: 4
  m_Component:
  - 4: {fileID: 1520442339}
  m_Layer: 0
  m_Name: key_gold
  m_TagString: Untagged
  m_Icon: {fileID: 0}
  m_NavMeshLayer: 0
  m_StaticEditorFlags: 0
  m_IsActive: 1
--- !u!4 &1520442339
Transform:
  m_ObjectHideFlags: 0
  m_PrefabParentObject: {fileID: 462124, guid: cc5de5e674870ca479a40105f80555ad, type: 2}
  m_PrefabInternal: {fileID: 279981035}
  m_GameObject: {fileID: 1520442338}
  m_LocalRotation: {x: 0, y: -0.56557554, z: 0, w: 0.82469654}
  m_LocalPosition: {x: 5.2039833, y: 0.022768548, z: 16.73939}
  m_LocalScale: {x: 1.8018788, y: 1.8018793, z: 1.8018793}
  m_LocalEulerAnglesHint: {x: 0, y: 0, z: 0}
  m_Children:
  - {fileID: 781753950}
  m_Father: {fileID: 0}
  m_RootOrder: 1
--- !u!1 &1563541965
GameObject:
  m_ObjectHideFlags: 0
  m_PrefabParentObject: {fileID: 0}
  m_PrefabInternal: {fileID: 0}
  serializedVersion: 4
  m_Component:
  - 4: {fileID: 1563541968}
  - 218: {fileID: 1563541967}
  - 154: {fileID: 1563541966}
  m_Layer: 0
  m_Name: Terrain
  m_TagString: Untagged
  m_Icon: {fileID: 0}
  m_NavMeshLayer: 0
  m_StaticEditorFlags: 4294967295
  m_IsActive: 1
--- !u!154 &1563541966
TerrainCollider:
  m_ObjectHideFlags: 0
  m_PrefabParentObject: {fileID: 0}
  m_PrefabInternal: {fileID: 0}
  m_GameObject: {fileID: 1563541965}
  m_Material: {fileID: 0}
  m_Enabled: 1
  m_TerrainData: {fileID: 15600000, guid: c7f8683b23840554fb4565d899cee05b, type: 2}
  m_EnableTreeColliders: 1
--- !u!218 &1563541967
Terrain:
  m_ObjectHideFlags: 0
  m_PrefabParentObject: {fileID: 0}
  m_PrefabInternal: {fileID: 0}
  m_GameObject: {fileID: 1563541965}
  m_Enabled: 1
  serializedVersion: 3
  m_TerrainData: {fileID: 15600000, guid: c7f8683b23840554fb4565d899cee05b, type: 2}
  m_TreeDistance: 2000
  m_TreeBillboardDistance: 50
  m_TreeCrossFadeLength: 5
  m_TreeMaximumFullLODCount: 50
  m_DetailObjectDistance: 80
  m_DetailObjectDensity: 1
  m_HeightmapPixelError: 5
  m_SplatMapDistance: 1000
  m_HeightmapMaximumLOD: 0
  m_CastShadows: 1
  m_DrawHeightmap: 1
  m_DrawTreesAndFoliage: 1
  m_ReflectionProbeUsage: 1
  m_MaterialType: 0
  m_LegacySpecular:
    serializedVersion: 2
    rgba: 4286545791
  m_LegacyShininess: 0.078125
  m_MaterialTemplate: {fileID: 0}
  m_BakeLightProbesForTrees: 1
  m_ScaleInLightmap: 0.0512
  m_LightmapParameters: {fileID: 15203, guid: 0000000000000000f000000000000000, type: 0}
--- !u!4 &1563541968
Transform:
  m_ObjectHideFlags: 0
  m_PrefabParentObject: {fileID: 0}
  m_PrefabInternal: {fileID: 0}
  m_GameObject: {fileID: 1563541965}
  m_LocalRotation: {x: 0, y: 0, z: 0, w: 1}
  m_LocalPosition: {x: 0, y: 0, z: 0}
  m_LocalScale: {x: 1, y: 1, z: 1}
  m_LocalEulerAnglesHint: {x: 0, y: 0, z: 0}
  m_Children: []
  m_Father: {fileID: 0}
  m_RootOrder: 4
--- !u!1 &1783885566
GameObject:
  m_ObjectHideFlags: 0
  m_PrefabParentObject: {fileID: 144718, guid: 41d1cac196452694fb10f2476db79e6e, type: 2}
  m_PrefabInternal: {fileID: 481896815}
  serializedVersion: 4
  m_Component:
  - 4: {fileID: 1783885567}
  - 33: {fileID: 1783885569}
  - 23: {fileID: 1783885568}
  m_Layer: 0
  m_Name: pPlane3
  m_TagString: Untagged
  m_Icon: {fileID: 0}
  m_NavMeshLayer: 0
  m_StaticEditorFlags: 0
  m_IsActive: 1
--- !u!4 &1783885567
Transform:
  m_ObjectHideFlags: 0
  m_PrefabParentObject: {fileID: 413480, guid: 41d1cac196452694fb10f2476db79e6e, type: 2}
  m_PrefabInternal: {fileID: 481896815}
  m_GameObject: {fileID: 1783885566}
  m_LocalRotation: {x: 0, y: 0, z: 0, w: 1}
  m_LocalPosition: {x: 0, y: 0, z: 0}
  m_LocalScale: {x: 1, y: 1, z: 1}
  m_LocalEulerAnglesHint: {x: 0, y: 0, z: 0}
  m_Children: []
  m_Father: {fileID: 43895180}
  m_RootOrder: 0
--- !u!23 &1783885568
MeshRenderer:
  m_ObjectHideFlags: 0
  m_PrefabParentObject: {fileID: 2311228, guid: 41d1cac196452694fb10f2476db79e6e,
    type: 2}
  m_PrefabInternal: {fileID: 481896815}
  m_GameObject: {fileID: 1783885566}
  m_Enabled: 1
  m_CastShadows: 1
  m_ReceiveShadows: 1
  m_MotionVectors: 1
  m_LightProbeUsage: 1
  m_ReflectionProbeUsage: 1
  m_Materials:
  - {fileID: 2100000, guid: 0275cd71d48a28e4ca8d99d740827a3f, type: 2}
  m_SubsetIndices: 
  m_StaticBatchRoot: {fileID: 0}
  m_ProbeAnchor: {fileID: 0}
  m_LightProbeVolumeOverride: {fileID: 0}
  m_ScaleInLightmap: 1
  m_PreserveUVs: 0
  m_IgnoreNormalsForChartDetection: 0
  m_ImportantGI: 0
  m_SelectedWireframeHidden: 0
  m_MinimumChartSize: 4
  m_AutoUVMaxDistance: 0.5
  m_AutoUVMaxAngle: 89
  m_LightmapParameters: {fileID: 0}
  m_SortingLayerID: 0
  m_SortingOrder: 0
--- !u!33 &1783885569
MeshFilter:
  m_ObjectHideFlags: 0
  m_PrefabParentObject: {fileID: 3338382, guid: 41d1cac196452694fb10f2476db79e6e,
    type: 2}
  m_PrefabInternal: {fileID: 481896815}
  m_GameObject: {fileID: 1783885566}
  m_Mesh: {fileID: 4300000, guid: 5abfc2d3b5ea5d64ca95d10d1a34b677, type: 3}
--- !u!1 &2006744832
GameObject:
  m_ObjectHideFlags: 0
  m_PrefabParentObject: {fileID: 0}
  m_PrefabInternal: {fileID: 0}
  serializedVersion: 4
  m_Component:
  - 4: {fileID: 2006744837}
  - 20: {fileID: 2006744836}
  - 92: {fileID: 2006744835}
  - 124: {fileID: 2006744834}
  - 81: {fileID: 2006744833}
  m_Layer: 0
  m_Name: Main Camera
  m_TagString: MainCamera
  m_Icon: {fileID: 0}
  m_NavMeshLayer: 0
  m_StaticEditorFlags: 0
  m_IsActive: 1
--- !u!81 &2006744833
AudioListener:
  m_ObjectHideFlags: 0
  m_PrefabParentObject: {fileID: 0}
  m_PrefabInternal: {fileID: 0}
  m_GameObject: {fileID: 2006744832}
  m_Enabled: 1
--- !u!124 &2006744834
Behaviour:
  m_ObjectHideFlags: 0
  m_PrefabParentObject: {fileID: 0}
  m_PrefabInternal: {fileID: 0}
  m_GameObject: {fileID: 2006744832}
  m_Enabled: 1
--- !u!92 &2006744835
Behaviour:
  m_ObjectHideFlags: 0
  m_PrefabParentObject: {fileID: 0}
  m_PrefabInternal: {fileID: 0}
  m_GameObject: {fileID: 2006744832}
  m_Enabled: 1
--- !u!20 &2006744836
Camera:
  m_ObjectHideFlags: 0
  m_PrefabParentObject: {fileID: 0}
  m_PrefabInternal: {fileID: 0}
  m_GameObject: {fileID: 2006744832}
  m_Enabled: 1
  serializedVersion: 2
  m_ClearFlags: 1
  m_BackGroundColor: {r: 0.19215687, g: 0.3019608, b: 0.4745098, a: 0.019607844}
  m_NormalizedViewPortRect:
    serializedVersion: 2
    x: 0
    y: 0
    width: 1
    height: 1
  near clip plane: 0.3
  far clip plane: 1000
  field of view: 60
  orthographic: 0
  orthographic size: 5
  m_Depth: -1
  m_CullingMask:
    serializedVersion: 2
    m_Bits: 4294967295
  m_RenderingPath: -1
  m_TargetTexture: {fileID: 0}
  m_TargetDisplay: 0
  m_TargetEye: 3
  m_HDR: 0
  m_OcclusionCulling: 1
  m_StereoConvergence: 10
  m_StereoSeparation: 0.022
  m_StereoMirrorMode: 0
--- !u!4 &2006744837
Transform:
  m_ObjectHideFlags: 0
  m_PrefabParentObject: {fileID: 0}
  m_PrefabInternal: {fileID: 0}
  m_GameObject: {fileID: 2006744832}
  m_LocalRotation: {x: 0, y: 0, z: 0, w: 1}
  m_LocalPosition: {x: 0, y: 1, z: -10}
  m_LocalScale: {x: 1, y: 1, z: 1}
  m_LocalEulerAnglesHint: {x: 0, y: 0, z: 0}
  m_Children: []
  m_Father: {fileID: 0}
  m_RootOrder: 2
